%YAML 1.1
%TAG !u! tag:unity3d.com,2011:
--- !u!114 &11400000
MonoBehaviour:
  m_ObjectHideFlags: 0
  m_CorrespondingSourceObject: {fileID: 0}
  m_PrefabInstance: {fileID: 0}
  m_PrefabAsset: {fileID: 0}
  m_GameObject: {fileID: 0}
  m_Enabled: 1
  m_EditorHideFlags: 0
  m_Script: {fileID: 11500000, guid: f8f96bd69acc065418e6bab30ddc8b11, type: 3}
  m_Name: Map1
  m_EditorClassIdentifier: 
  MapName: First Map
  thumbnali: {fileID: 21300000, guid: 0ee52629d456790408666523cc0521be, type: 3}
  MapFileName: Map1
