%YAML 1.1
%TAG !u! tag:unity3d.com,2011:
--- !u!1045 &1
EditorBuildSettings:
  m_ObjectHideFlags: 0
  serializedVersion: 2
  m_Scenes:
  - enabled: 1
    path: Assets/Scenes/Menu.unity
    guid: 5b9735a845fffb8469636530d4776c56
  - enabled: 1
    path: Assets/Scenes/Map1.unity
    guid: 2cda990e2423bbf4892e6590ba056729
  - enabled: 1
    path: Assets/Scenes/Map2.unity
    guid: 5f5d507c5e6cfbd4d92f9fdb733b6af3
  m_configObjects: {}
